simulation/qsim/Control.msim.vcd
$comment
	File created using the following command:
		vcd file Control.msim.vcd -direction
$end
$date
	Mon Nov 23 06:22:31 2020
$end
$version
	ModelSim Version 10.1d
$end
$timescale
	1ps
$end
$scope module Control_vlg_vec_tst $end
$var reg 1 ! Clock $end
$var reg 1 " ResetSystem $end
$var wire 1 # Ena_Mp $end
$var wire 1 $ Estados [5] $end
$var wire 1 % Estados [4] $end
$var wire 1 & Estados [3] $end
$var wire 1 ' Estados [2] $end
$var wire 1 ( Estados [1] $end
$var wire 1 ) Estados [0] $end
$var wire 1 * Incremente $end
$var wire 1 + PC_DirMP_Enable $end
$var wire 1 , sampler $end
$scope module i1 $end
$var wire 1 - gnd $end
$var wire 1 . vcc $end
$var wire 1 / unknown $end
$var tri1 1 0 devclrn $end
$var tri1 1 1 devpor $end
$var tri1 1 2 devoe $end
$var wire 1 3 Incremente~output_o $end
$var wire 1 4 Ena_Mp~output_o $end
$var wire 1 5 PC_DirMP_Enable~output_o $end
$var wire 1 6 Estados[0]~output_o $end
$var wire 1 7 Estados[1]~output_o $end
$var wire 1 8 Estados[2]~output_o $end
$var wire 1 9 Estados[3]~output_o $end
$var wire 1 : Estados[4]~output_o $end
$var wire 1 ; Estados[5]~output_o $end
$var wire 1 < Clock~input_o $end
$var wire 1 = FF0~0_combout $end
$var wire 1 > ResetSystem~input_o $end
$var wire 1 ? FF0~q $end
$var wire 1 @ FF1~0_combout $end
$var wire 1 A FF1~q $end
$var wire 1 B FF2~q $end
$var wire 1 C Ena_Mp~0_combout $end
$upscope $end
$upscope $end
$enddefinitions $end
#0
$dumpvars
0!
1"
1#
1)
0(
0'
0&
0%
0$
0*
1+
x,
0-
1.
x/
10
11
12
03
14
15
16
07
08
09
0:
0;
0<
1=
1>
0?
1@
0A
0B
1C
$end
#10000
1!
1<
0,
1?
1A
0@
06
17
0)
1(
#20000
0!
0<
1,
#30000
1!
1<
0,
1B
0A
0=
18
13
07
1'
1*
0(
#40000
0!
0<
1,
#50000
1!
1<
0,
0?
0B
1@
1=
16
08
03
1)
0'
0*
#60000
0!
0<
1,
#70000
1!
1<
0,
1?
1A
0@
06
17
0)
1(
#80000
0!
0<
1,
#90000
1!
1<
0,
1B
0A
0=
18
13
07
1'
1*
0(
#100000
0!
0<
1,
#110000
1!
1<
0,
0?
0B
1@
1=
16
08
03
1)
0'
0*
#120000
0!
0<
1,
#130000
1!
1<
0,
1?
1A
0@
06
17
0)
1(
#140000
0!
0<
1,
#150000
1!
1<
0,
1B
0A
0=
18
13
07
1'
1*
0(
#160000
0!
0<
1,
#170000
1!
1<
0,
0?
0B
1@
1=
16
08
03
1)
0'
0*
#180000
0!
0<
1,
#190000
1!
1<
0,
1?
1A
0@
06
17
0)
1(
#200000
0!
0<
1,
#210000
1!
1<
0,
1B
0A
0=
18
13
07
1'
1*
0(
#220000
0!
0<
1,
#230000
1!
1<
0,
0?
0B
1@
1=
16
08
03
1)
0'
0*
#240000
0!
0<
1,
#250000
1!
1<
0,
1?
1A
0@
06
17
0)
1(
#260000
0!
0<
1,
#270000
1!
1<
0,
1B
0A
0=
18
13
07
1'
1*
0(
#280000
0!
0<
1,
#290000
1!
1<
0,
0?
0B
1@
1=
16
08
03
1)
0'
0*
#300000
0!
0<
1,
#310000
1!
1<
0,
1?
1A
0@
06
17
0)
1(
#320000
0!
0<
1,
#330000
1!
1<
0,
1B
0A
0=
18
13
07
1'
1*
0(
#340000
0!
0<
1,
#350000
1!
1<
0,
0?
0B
1@
1=
16
08
03
1)
0'
0*
#360000
0!
0<
1,
#370000
1!
1<
0,
1?
1A
0@
06
17
0)
1(
#380000
0!
0<
1,
#390000
1!
1<
0,
1B
0A
0=
18
13
07
1'
1*
0(
#400000
0!
0<
1,
#410000
1!
1<
0,
0?
0B
1@
1=
16
08
03
1)
0'
0*
#420000
0!
0<
1,
#430000
1!
1<
0,
1?
1A
0@
06
17
0)
1(
#440000
0!
0<
1,
#450000
1!
1<
0,
1B
0A
0=
18
13
07
1'
1*
0(
#460000
0!
0<
1,
#470000
1!
1<
0,
0?
0B
1@
1=
16
08
03
1)
0'
0*
#480000
0!
0<
1,
#490000
1!
1<
0,
1?
1A
0@
06
17
0)
1(
#500000
0!
0<
1,
#510000
1!
1<
0,
1B
0A
0=
18
13
07
1'
1*
0(
#520000
0!
0<
1,
#530000
1!
1<
0,
0?
0B
1@
1=
16
08
03
1)
0'
0*
#540000
0!
0<
1,
#550000
1!
1<
0,
1?
1A
0@
06
17
0)
1(
#560000
0!
0<
1,
#570000
1!
1<
0,
1B
0A
0=
18
13
07
1'
1*
0(
#580000
0!
0<
1,
#590000
1!
1<
0,
0?
0B
1@
1=
16
08
03
1)
0'
0*
#600000
0!
0<
1,
#610000
1!
1<
0,
1?
1A
0@
06
17
0)
1(
#620000
0!
0<
1,
#630000
1!
1<
0,
1B
0A
0=
18
13
07
1'
1*
0(
#640000
0!
0<
1,
#650000
1!
1<
0,
0?
0B
1@
1=
16
08
03
1)
0'
0*
#660000
0!
0<
1,
#670000
1!
1<
0,
1?
1A
0@
06
17
0)
1(
#680000
0!
0<
1,
#690000
1!
1<
0,
1B
0A
0=
18
13
07
1'
1*
0(
#700000
0!
0<
1,
#710000
1!
1<
0,
0?
0B
1@
1=
16
08
03
1)
0'
0*
#720000
0!
0<
1,
#730000
1!
1<
0,
1?
1A
0@
06
17
0)
1(
#740000
0!
0<
1,
#750000
1!
1<
0,
1B
0A
0=
18
13
07
1'
1*
0(
#760000
0!
0<
1,
#770000
1!
1<
0,
0?
0B
1@
1=
16
08
03
1)
0'
0*
#780000
0!
0<
1,
#790000
1!
1<
0,
1?
1A
0@
06
17
0)
1(
#800000
0!
0<
1,
#810000
1!
1<
0,
1B
0A
0=
18
13
07
1'
1*
0(
#820000
0!
0<
1,
#830000
1!
1<
0,
0?
0B
1@
1=
16
08
03
1)
0'
0*
#840000
0!
0<
1,
#850000
1!
1<
0,
1?
1A
0@
06
17
0)
1(
#860000
0!
0<
1,
#870000
1!
1<
0,
1B
0A
0=
18
13
07
1'
1*
0(
#880000
0!
0<
1,
#890000
1!
1<
0,
0?
0B
1@
1=
16
08
03
1)
0'
0*
#900000
0!
0<
1,
#910000
1!
1<
0,
1?
1A
0@
06
17
0)
1(
#920000
0!
0<
1,
#930000
1!
1<
0,
1B
0A
0=
18
13
07
1'
1*
0(
#940000
0!
0<
1,
#950000
1!
1<
0,
0?
0B
1@
1=
16
08
03
1)
0'
0*
#960000
0!
0<
1,
#970000
1!
1<
0,
1?
1A
0@
06
17
0)
1(
#980000
0!
0<
1,
#990000
1!
1<
0,
1B
0A
0=
18
13
07
1'
1*
0(
