simulation/qsim/DirRegister.msim.vcd
$comment
	File created using the following command:
		vcd file DirRegister.msim.vcd -direction
$end
$date
	Mon Nov 30 22:15:34 2020
$end
$version
	ModelSim Version 10.1d
$end
$timescale
	1ps
$end
$scope module DirRegister_vlg_vec_tst $end
$var reg 1 ! Clock $end
$var reg 16 " InDir [15:0] $end
$var reg 1 # ResetSystem $end
$var reg 1 $ Save $end
$var wire 1 % DirOut [15] $end
$var wire 1 & DirOut [14] $end
$var wire 1 ' DirOut [13] $end
$var wire 1 ( DirOut [12] $end
$var wire 1 ) DirOut [11] $end
$var wire 1 * DirOut [10] $end
$var wire 1 + DirOut [9] $end
$var wire 1 , DirOut [8] $end
$var wire 1 - DirOut [7] $end
$var wire 1 . DirOut [6] $end
$var wire 1 / DirOut [5] $end
$var wire 1 0 DirOut [4] $end
$var wire 1 1 DirOut [3] $end
$var wire 1 2 DirOut [2] $end
$var wire 1 3 DirOut [1] $end
$var wire 1 4 DirOut [0] $end
$var wire 1 5 sampler $end
$scope module i1 $end
$var wire 1 6 gnd $end
$var wire 1 7 vcc $end
$var wire 1 8 unknown $end
$var tri1 1 9 devclrn $end
$var tri1 1 : devpor $end
$var tri1 1 ; devoe $end
$var wire 1 < DirOut[0]~output_o $end
$var wire 1 = DirOut[1]~output_o $end
$var wire 1 > DirOut[2]~output_o $end
$var wire 1 ? DirOut[3]~output_o $end
$var wire 1 @ DirOut[4]~output_o $end
$var wire 1 A DirOut[5]~output_o $end
$var wire 1 B DirOut[6]~output_o $end
$var wire 1 C DirOut[7]~output_o $end
$var wire 1 D DirOut[8]~output_o $end
$var wire 1 E DirOut[9]~output_o $end
$var wire 1 F DirOut[10]~output_o $end
$var wire 1 G DirOut[11]~output_o $end
$var wire 1 H DirOut[12]~output_o $end
$var wire 1 I DirOut[13]~output_o $end
$var wire 1 J DirOut[14]~output_o $end
$var wire 1 K DirOut[15]~output_o $end
$var wire 1 L Clock~input_o $end
$var wire 1 M Clock~inputclkctrl_outclk $end
$var wire 1 N InDir[0]~input_o $end
$var wire 1 O FF0~feeder_combout $end
$var wire 1 P ResetSystem~input_o $end
$var wire 1 Q ResetSystem~inputclkctrl_outclk $end
$var wire 1 R Save~input_o $end
$var wire 1 S FF0~q $end
$var wire 1 T InDir[1]~input_o $end
$var wire 1 U FF1~feeder_combout $end
$var wire 1 V FF1~q $end
$var wire 1 W InDir[2]~input_o $end
$var wire 1 X FF2~q $end
$var wire 1 Y InDir[3]~input_o $end
$var wire 1 Z FF3~feeder_combout $end
$var wire 1 [ FF3~q $end
$var wire 1 \ InDir[4]~input_o $end
$var wire 1 ] FF4~feeder_combout $end
$var wire 1 ^ FF4~q $end
$var wire 1 _ InDir[5]~input_o $end
$var wire 1 ` FF5~feeder_combout $end
$var wire 1 a FF5~q $end
$var wire 1 b InDir[6]~input_o $end
$var wire 1 c FF6~feeder_combout $end
$var wire 1 d FF6~q $end
$var wire 1 e InDir[7]~input_o $end
$var wire 1 f FF7~q $end
$var wire 1 g InDir[8]~input_o $end
$var wire 1 h FF8~feeder_combout $end
$var wire 1 i FF8~q $end
$var wire 1 j InDir[9]~input_o $end
$var wire 1 k FF9~q $end
$var wire 1 l InDir[10]~input_o $end
$var wire 1 m FF10~feeder_combout $end
$var wire 1 n FF10~q $end
$var wire 1 o InDir[11]~input_o $end
$var wire 1 p FF11~feeder_combout $end
$var wire 1 q FF11~q $end
$var wire 1 r InDir[12]~input_o $end
$var wire 1 s FF12~feeder_combout $end
$var wire 1 t FF12~q $end
$var wire 1 u InDir[13]~input_o $end
$var wire 1 v FF13~q $end
$var wire 1 w InDir[14]~input_o $end
$var wire 1 x FF14~q $end
$var wire 1 y InDir[15]~input_o $end
$var wire 1 z FF15~q $end
$upscope $end
$upscope $end
$enddefinitions $end
#0
$dumpvars
0!
b1000000000000001 "
1#
0$
x4
x3
x2
x1
x0
x/
x.
x-
x,
x+
x*
x)
x(
x'
x&
x%
x5
06
17
x8
19
1:
1;
x<
x=
x>
x?
x@
xA
xB
xC
xD
xE
xF
xG
xH
xI
xJ
xK
0L
xM
1N
xO
1P
xQ
0R
0S
0T
xU
0V
0W
0X
0Y
xZ
0[
0\
x]
0^
0_
x`
0a
0b
xc
0d
0e
0f
0g
xh
0i
0j
0k
0l
xm
0n
0o
xp
0q
0r
xs
0t
0u
0v
0w
0x
1y
0z
$end
#378
0M
#390
1Q
#1380
1O
#3534
0H
0(
#3600
0F
0*
#3710
0p
#3750
0`
#3759
0]
#3906
0h
#3942
0c
#3960
0Z
#3961
0@
00
#4091
0U
#4146
0s
#4163
0m
#4173
0G
0)
#4205
0=
03
#4392
0C
0-
#4410
0B
0.
#4604
0K
0%
#4872
0?
01
#5027
0D
0,
#5061
0J
0&
#5072
0A
0/
#5173
0E
0+
#5436
0I
0'
#5504
0>
02
#5863
0<
04
#10000
1!
05
#10527
1L
#10917
1M
#20000
0!
15
#20701
0L
#21079
0M
#30000
1!
05
#30527
1L
#30917
1M
#40000
0!
15
#40701
0L
#41079
0M
#50000
1!
05
#50527
1L
#50917
1M
#60000
0!
15
#60701
0L
#61079
0M
#70000
1!
05
#70527
1L
#70917
1M
#80000
0!
15
#80701
0L
#81079
0M
#90000
1!
05
#90527
1L
#90917
1M
#100000
0!
15
#100701
0L
#101079
0M
#110000
1!
05
#110527
1L
#110917
1M
#120000
0!
15
#120701
0L
#121079
0M
#130000
1!
05
#130527
1L
#130917
1M
#140000
0!
15
#140701
0L
#141079
0M
#150000
1!
05
#150527
1L
#150917
1M
#160000
0!
15
#160701
0L
#161079
0M
#170000
1!
05
#170527
1L
#170917
1M
#180000
0!
15
#180701
0L
#181079
0M
#190000
1!
05
#190527
1L
#190917
1M
#200000
0!
15
#200701
0L
#201079
0M
#210000
1!
05
#210527
1L
#210917
1M
#220000
0!
15
#220701
0L
#221079
0M
#230000
1!
05
#230527
1L
#230917
1M
#240000
0!
15
#240701
0L
#241079
0M
#250000
1!
05
#250527
1L
#250917
1M
#260000
0!
15
#260701
0L
#261079
0M
#270000
1!
05
#270527
1L
#270917
1M
#280000
0!
15
#280701
0L
#281079
0M
#290000
1!
05
#290527
1L
#290917
1M
#300000
0!
15
#300701
0L
#301079
0M
#310000
1!
05
#310527
1L
#310917
1M
#320000
0!
15
#320701
0L
#321079
0M
#330000
1!
05
#330527
1L
#330917
1M
#340000
0!
15
#340701
0L
#341079
0M
#350000
1!
05
#350527
1L
#350917
1M
#360000
0!
15
#360701
0L
#361079
0M
#370000
1!
05
#370527
1L
#370917
1M
#380000
0!
15
#380701
0L
#381079
0M
#390000
1!
05
#390527
1L
#390917
1M
#400000
0!
15
#400701
0L
#401079
0M
#410000
1!
05
#410527
1L
#410917
1M
#420000
0!
15
#420701
0L
#421079
0M
#430000
1!
05
#430527
1L
#430917
1M
#440000
0!
15
#440701
0L
#441079
0M
#450000
1!
05
#450527
1L
#450917
1M
#460000
0!
15
#460701
0L
#461079
0M
#470000
1!
05
#470527
1L
#470917
1M
#480000
0!
15
#480701
0L
#481079
0M
#490000
1!
05
#490527
1L
#490917
1M
#500000
0!
15
#500701
0L
#501079
0M
#510000
1!
05
#510527
1L
#510917
1M
#520000
0!
15
#520701
0L
#521079
0M
#530000
1!
05
#530527
1L
#530917
1M
#540000
1$
0!
15
#540507
1R
#540701
0L
#541079
0M
#550000
1!
05
#550527
1L
#550917
1M
#552542
1S
1z
#557201
1K
1%
#558340
1<
14
#560000
0!
15
#560701
0L
#561079
0M
#570000
1!
05
#570527
1L
#570917
1M
#580000
0$
0!
15
#580681
0R
#580701
0L
#581079
0M
#590000
1!
05
#590527
1L
#590917
1M
#600000
0!
15
#600701
0L
#601079
0M
#610000
1!
05
#610527
1L
#610917
1M
#620000
0!
15
#620701
0L
#621079
0M
#630000
1!
05
#630527
1L
#630917
1M
#640000
0!
15
#640701
0L
#641079
0M
#650000
1!
05
#650527
1L
#650917
1M
#660000
0!
15
#660701
0L
#661079
0M
#670000
1!
05
#670527
1L
#670917
1M
#680000
0!
15
#680701
0L
#681079
0M
#690000
1!
05
#690527
1L
#690917
1M
#700000
0!
15
#700701
0L
#701079
0M
#710000
1!
05
#710527
1L
#710917
1M
#720000
0!
15
#720701
0L
#721079
0M
#730000
1!
05
#730527
1L
#730917
1M
#740000
0!
15
#740701
0L
#741079
0M
#750000
1!
05
#750527
1L
#750917
1M
#760000
0!
15
#760701
0L
#761079
0M
#770000
1!
05
#770527
1L
#770917
1M
#780000
0!
15
#780701
0L
#781079
0M
#790000
1!
05
#790527
1L
#790917
1M
#800000
0!
15
#800701
0L
#801079
0M
#810000
1!
05
#810527
1L
#810917
1M
#820000
0!
15
#820701
0L
#821079
0M
#830000
1!
05
#830527
1L
#830917
1M
#840000
0!
15
#840701
0L
#841079
0M
#850000
1!
05
#850527
1L
#850917
1M
#860000
0!
15
#860701
0L
#861079
0M
#870000
1!
05
#870527
1L
#870917
1M
#880000
0!
15
#880701
0L
#881079
0M
#890000
1!
05
#890527
1L
#890917
1M
#900000
0!
15
#900701
0L
#901079
0M
#910000
1!
05
#910527
1L
#910917
1M
#920000
0!
15
#920701
0L
#921079
0M
#930000
1!
05
#930527
1L
#930917
1M
#940000
0!
15
#940701
0L
#941079
0M
#950000
1!
05
#950527
1L
#950917
1M
#960000
0!
15
#960701
0L
#961079
0M
#970000
1!
05
#970527
1L
#970917
1M
#980000
0!
15
#980701
0L
#981079
0M
#990000
1!
05
#990527
1L
