simulation/qsim/GeneralPR.msim.vcd
$comment
	File created using the following command:
		vcd file GeneralPR.msim.vcd -direction
$end
$date
	Mon Nov 23 19:09:51 2020
$end
$version
	ModelSim Version 10.1d
$end
$timescale
	1ps
$end
$scope module GeneralPR_vlg_vec_tst $end
$var reg 1 ! Clock $end
$var reg 16 " DMD [15:0] $end
$var reg 1 # ResetSystem $end
$var reg 1 $ SaveRDT $end
$var wire 1 % InstRDT [15] $end
$var wire 1 & InstRDT [14] $end
$var wire 1 ' InstRDT [13] $end
$var wire 1 ( InstRDT [12] $end
$var wire 1 ) InstRDT [11] $end
$var wire 1 * InstRDT [10] $end
$var wire 1 + InstRDT [9] $end
$var wire 1 , InstRDT [8] $end
$var wire 1 - InstRDT [7] $end
$var wire 1 . InstRDT [6] $end
$var wire 1 / InstRDT [5] $end
$var wire 1 0 InstRDT [4] $end
$var wire 1 1 InstRDT [3] $end
$var wire 1 2 InstRDT [2] $end
$var wire 1 3 InstRDT [1] $end
$var wire 1 4 InstRDT [0] $end
$var wire 1 5 sampler $end
$scope module i1 $end
$var wire 1 6 gnd $end
$var wire 1 7 vcc $end
$var wire 1 8 unknown $end
$var tri1 1 9 devclrn $end
$var tri1 1 : devpor $end
$var tri1 1 ; devoe $end
$var wire 1 < InstRDT[0]~output_o $end
$var wire 1 = InstRDT[1]~output_o $end
$var wire 1 > InstRDT[2]~output_o $end
$var wire 1 ? InstRDT[3]~output_o $end
$var wire 1 @ InstRDT[4]~output_o $end
$var wire 1 A InstRDT[5]~output_o $end
$var wire 1 B InstRDT[6]~output_o $end
$var wire 1 C InstRDT[7]~output_o $end
$var wire 1 D InstRDT[8]~output_o $end
$var wire 1 E InstRDT[9]~output_o $end
$var wire 1 F InstRDT[10]~output_o $end
$var wire 1 G InstRDT[11]~output_o $end
$var wire 1 H InstRDT[12]~output_o $end
$var wire 1 I InstRDT[13]~output_o $end
$var wire 1 J InstRDT[14]~output_o $end
$var wire 1 K InstRDT[15]~output_o $end
$var wire 1 L Clock~input_o $end
$var wire 1 M Clock~inputclkctrl_outclk $end
$var wire 1 N DMD[0]~input_o $end
$var wire 1 O FF0~feeder_combout $end
$var wire 1 P ResetSystem~input_o $end
$var wire 1 Q ResetSystem~inputclkctrl_outclk $end
$var wire 1 R SaveRDT~input_o $end
$var wire 1 S FF0~q $end
$var wire 1 T DMD[1]~input_o $end
$var wire 1 U FF1~feeder_combout $end
$var wire 1 V FF1~q $end
$var wire 1 W DMD[2]~input_o $end
$var wire 1 X FF2~q $end
$var wire 1 Y DMD[3]~input_o $end
$var wire 1 Z FF3~feeder_combout $end
$var wire 1 [ FF3~q $end
$var wire 1 \ DMD[4]~input_o $end
$var wire 1 ] FF4~feeder_combout $end
$var wire 1 ^ FF4~q $end
$var wire 1 _ DMD[5]~input_o $end
$var wire 1 ` FF5~feeder_combout $end
$var wire 1 a FF5~q $end
$var wire 1 b DMD[6]~input_o $end
$var wire 1 c FF6~feeder_combout $end
$var wire 1 d FF6~q $end
$var wire 1 e DMD[7]~input_o $end
$var wire 1 f FF7~q $end
$var wire 1 g DMD[8]~input_o $end
$var wire 1 h FF8~feeder_combout $end
$var wire 1 i FF8~q $end
$var wire 1 j DMD[9]~input_o $end
$var wire 1 k FF9~q $end
$var wire 1 l DMD[10]~input_o $end
$var wire 1 m FF10~feeder_combout $end
$var wire 1 n FF10~q $end
$var wire 1 o DMD[11]~input_o $end
$var wire 1 p FF11~feeder_combout $end
$var wire 1 q FF11~q $end
$var wire 1 r DMD[12]~input_o $end
$var wire 1 s FF12~feeder_combout $end
$var wire 1 t FF12~q $end
$var wire 1 u DMD[13]~input_o $end
$var wire 1 v FF13~q $end
$var wire 1 w DMD[14]~input_o $end
$var wire 1 x FF14~q $end
$var wire 1 y DMD[15]~input_o $end
$var wire 1 z FF15~q $end
$upscope $end
$upscope $end
$enddefinitions $end
#0
$dumpvars
0!
b10101010101001 "
1#
0$
04
03
02
01
00
0/
0.
0-
0,
0+
0*
0)
0(
0'
0&
0%
x5
06
17
x8
19
1:
1;
0<
0=
0>
0?
0@
0A
0B
0C
0D
0E
0F
0G
0H
0I
0J
0K
0L
0M
1N
1O
1P
1Q
0R
0S
0T
0U
0V
0W
0X
1Y
1Z
0[
0\
0]
0^
1_
1`
0a
0b
0c
0d
1e
0f
0g
0h
0i
1j
0k
0l
0m
0n
1o
1p
0q
0r
0s
0t
1u
0v
0w
0x
0y
0z
$end
#10000
1!
1L
1M
05
#20000
0!
0L
0M
15
#30000
1!
1L
1M
05
#40000
0!
0L
0M
15
#50000
1!
1L
1M
05
#60000
0!
0L
0M
15
#70000
1!
1L
1M
05
#80000
0!
0L
0M
15
#90000
1!
1L
1M
05
#100000
0!
0L
0M
15
#110000
1!
1L
1M
05
#120000
0!
0L
0M
15
#130000
1!
1L
1M
05
#140000
0!
0L
0M
15
#150000
1!
1L
1M
05
#160000
0!
0L
0M
15
#170000
1!
1L
1M
05
#180000
0!
0L
0M
15
#190000
1!
1L
1M
05
#200000
0!
0L
0M
15
#210000
1!
1L
1M
05
#220000
0!
0L
0M
15
#230000
1!
1L
1M
05
#240000
0!
0L
0M
15
#250000
1!
1L
1M
05
#260000
0!
0L
0M
15
#270000
1!
1L
1M
05
#280000
0!
0L
0M
15
#290000
1!
1L
1M
05
#300000
0!
0L
0M
15
#310000
1!
1L
1M
05
#320000
0!
0L
0M
15
#330000
1!
1L
1M
05
#340000
0!
0L
0M
15
#350000
1!
1L
1M
05
#360000
0!
0L
0M
15
#370000
1!
1L
1M
05
#380000
0!
0L
0M
15
#390000
1!
1L
1M
05
#400000
0!
0L
0M
15
#410000
1!
1L
1M
05
#420000
1$
0!
1R
0L
0M
15
#430000
1!
1L
1M
05
1v
1q
1k
1f
1a
1[
1S
1I
1G
1E
1C
1A
1?
1<
1'
1)
1+
1-
1/
11
14
#440000
0$
0!
0R
0L
0M
15
#450000
1!
1L
1M
05
#460000
0!
0L
0M
15
#470000
1!
1L
1M
05
#480000
0!
0L
0M
15
#490000
1!
1L
1M
05
#500000
0!
0L
0M
15
#510000
1!
1L
1M
05
#520000
0!
0L
0M
15
#530000
1!
1L
1M
05
#540000
0!
0L
0M
15
#550000
1!
1L
1M
05
#560000
0!
0L
0M
15
#570000
1!
1L
1M
05
#580000
0!
0L
0M
15
#590000
1!
1L
1M
05
#600000
0!
0L
0M
15
#610000
1!
1L
1M
05
#620000
0!
0L
0M
15
#630000
1!
1L
1M
05
#640000
0!
0L
0M
15
#650000
1!
1L
1M
05
#660000
0!
0L
0M
15
#670000
1!
1L
1M
05
#680000
0!
0L
0M
15
#690000
1!
1L
1M
05
#700000
0!
0L
0M
15
#710000
1!
1L
1M
05
#720000
0!
0L
0M
15
#730000
1!
1L
1M
05
#740000
0!
0L
0M
15
#750000
1!
1L
1M
05
#760000
0!
0L
0M
15
#770000
1!
1L
1M
05
#780000
0!
0L
0M
15
#790000
1!
1L
1M
05
#800000
0!
0L
0M
15
#810000
1!
1L
1M
05
#820000
0!
0L
0M
15
#830000
1!
1L
1M
05
#840000
0!
0L
0M
15
#850000
1!
1L
1M
05
#860000
0!
0L
0M
15
#870000
1!
1L
1M
05
#880000
0!
0L
0M
15
#890000
1!
1L
1M
05
#900000
0!
0L
0M
15
#910000
1!
1L
1M
05
#920000
0!
0L
0M
15
#930000
1!
1L
1M
05
#940000
0!
0L
0M
15
#950000
1!
1L
1M
05
#960000
0!
0L
0M
15
#970000
1!
1L
1M
05
#980000
0!
0L
0M
15
#990000
1!
1L
1M
05
