simulation/qsim/Procesador.msim.vcd
$comment
	File created using the following command:
		vcd file Procesador.msim.vcd -direction
$end
$date
	Mon Nov 23 06:46:19 2020
$end
$version
	ModelSim Version 10.1d
$end
$timescale
	1ps
$end
$scope module Procesador_vlg_vec_tst $end
$var reg 1 ! Clock $end
$var reg 23 " Dato_Mp [22:0] $end
$var reg 16 # Datoin_Md [15:0] $end
$var reg 1 $ Int $end
$var reg 1 % ResetSystem $end
$var wire 1 & Count [15] $end
$var wire 1 ' Count [14] $end
$var wire 1 ( Count [13] $end
$var wire 1 ) Count [12] $end
$var wire 1 * Count [11] $end
$var wire 1 + Count [10] $end
$var wire 1 , Count [9] $end
$var wire 1 - Count [8] $end
$var wire 1 . Count [7] $end
$var wire 1 / Count [6] $end
$var wire 1 0 Count [5] $end
$var wire 1 1 Count [4] $end
$var wire 1 2 Count [3] $end
$var wire 1 3 Count [2] $end
$var wire 1 4 Count [1] $end
$var wire 1 5 Count [0] $end
$var wire 1 6 Dataout_Md [15] $end
$var wire 1 7 Dataout_Md [14] $end
$var wire 1 8 Dataout_Md [13] $end
$var wire 1 9 Dataout_Md [12] $end
$var wire 1 : Dataout_Md [11] $end
$var wire 1 ; Dataout_Md [10] $end
$var wire 1 < Dataout_Md [9] $end
$var wire 1 = Dataout_Md [8] $end
$var wire 1 > Dataout_Md [7] $end
$var wire 1 ? Dataout_Md [6] $end
$var wire 1 @ Dataout_Md [5] $end
$var wire 1 A Dataout_Md [4] $end
$var wire 1 B Dataout_Md [3] $end
$var wire 1 C Dataout_Md [2] $end
$var wire 1 D Dataout_Md [1] $end
$var wire 1 E Dataout_Md [0] $end
$var wire 1 F Dir_Mp [15] $end
$var wire 1 G Dir_Mp [14] $end
$var wire 1 H Dir_Mp [13] $end
$var wire 1 I Dir_Mp [12] $end
$var wire 1 J Dir_Mp [11] $end
$var wire 1 K Dir_Mp [10] $end
$var wire 1 L Dir_Mp [9] $end
$var wire 1 M Dir_Mp [8] $end
$var wire 1 N Dir_Mp [7] $end
$var wire 1 O Dir_Mp [6] $end
$var wire 1 P Dir_Mp [5] $end
$var wire 1 Q Dir_Mp [4] $end
$var wire 1 R Dir_Mp [3] $end
$var wire 1 S Dir_Mp [2] $end
$var wire 1 T Dir_Mp [1] $end
$var wire 1 U Dir_Mp [0] $end
$var wire 1 V Ena_Md $end
$var wire 1 W Ena_Mp $end
$var wire 1 X Estados [5] $end
$var wire 1 Y Estados [4] $end
$var wire 1 Z Estados [3] $end
$var wire 1 [ Estados [2] $end
$var wire 1 \ Estados [1] $end
$var wire 1 ] Estados [0] $end
$var wire 1 ^ MDM [15] $end
$var wire 1 _ MDM [14] $end
$var wire 1 ` MDM [13] $end
$var wire 1 a MDM [12] $end
$var wire 1 b MDM [11] $end
$var wire 1 c MDM [10] $end
$var wire 1 d MDM [9] $end
$var wire 1 e MDM [8] $end
$var wire 1 f MDM [7] $end
$var wire 1 g MDM [6] $end
$var wire 1 h MDM [5] $end
$var wire 1 i MDM [4] $end
$var wire 1 j MDM [3] $end
$var wire 1 k MDM [2] $end
$var wire 1 l MDM [1] $end
$var wire 1 m MDM [0] $end
$var wire 1 n Read_Mp $end
$var wire 1 o RW_Md $end
$var wire 1 p sampler $end
$scope module i1 $end
$var wire 1 q gnd $end
$var wire 1 r vcc $end
$var wire 1 s unknown $end
$var tri1 1 t devclrn $end
$var tri1 1 u devpor $end
$var tri1 1 v devoe $end
$var wire 1 w Dato_Mp[0]~input_o $end
$var wire 1 x Dato_Mp[1]~input_o $end
$var wire 1 y Dato_Mp[2]~input_o $end
$var wire 1 z Dato_Mp[3]~input_o $end
$var wire 1 { Dato_Mp[4]~input_o $end
$var wire 1 | Dato_Mp[5]~input_o $end
$var wire 1 } Dato_Mp[6]~input_o $end
$var wire 1 ~ Dato_Mp[7]~input_o $end
$var wire 1 !! Dato_Mp[8]~input_o $end
$var wire 1 "! Dato_Mp[9]~input_o $end
$var wire 1 #! Dato_Mp[10]~input_o $end
$var wire 1 $! Dato_Mp[11]~input_o $end
$var wire 1 %! Dato_Mp[12]~input_o $end
$var wire 1 &! Dato_Mp[13]~input_o $end
$var wire 1 '! Dato_Mp[14]~input_o $end
$var wire 1 (! Dato_Mp[15]~input_o $end
$var wire 1 )! Dato_Mp[16]~input_o $end
$var wire 1 *! Dato_Mp[17]~input_o $end
$var wire 1 +! Dato_Mp[18]~input_o $end
$var wire 1 ,! Dato_Mp[19]~input_o $end
$var wire 1 -! Dato_Mp[20]~input_o $end
$var wire 1 .! Dato_Mp[21]~input_o $end
$var wire 1 /! Dato_Mp[22]~input_o $end
$var wire 1 0! Datoin_Md[0]~input_o $end
$var wire 1 1! Datoin_Md[1]~input_o $end
$var wire 1 2! Datoin_Md[2]~input_o $end
$var wire 1 3! Datoin_Md[3]~input_o $end
$var wire 1 4! Datoin_Md[4]~input_o $end
$var wire 1 5! Datoin_Md[5]~input_o $end
$var wire 1 6! Datoin_Md[6]~input_o $end
$var wire 1 7! Datoin_Md[7]~input_o $end
$var wire 1 8! Datoin_Md[8]~input_o $end
$var wire 1 9! Datoin_Md[9]~input_o $end
$var wire 1 :! Datoin_Md[10]~input_o $end
$var wire 1 ;! Datoin_Md[11]~input_o $end
$var wire 1 <! Datoin_Md[12]~input_o $end
$var wire 1 =! Datoin_Md[13]~input_o $end
$var wire 1 >! Datoin_Md[14]~input_o $end
$var wire 1 ?! Datoin_Md[15]~input_o $end
$var wire 1 @! Int~input_o $end
$var wire 1 A! Dir_Mp[0]~output_o $end
$var wire 1 B! Dir_Mp[1]~output_o $end
$var wire 1 C! Dir_Mp[2]~output_o $end
$var wire 1 D! Dir_Mp[3]~output_o $end
$var wire 1 E! Dir_Mp[4]~output_o $end
$var wire 1 F! Dir_Mp[5]~output_o $end
$var wire 1 G! Dir_Mp[6]~output_o $end
$var wire 1 H! Dir_Mp[7]~output_o $end
$var wire 1 I! Dir_Mp[8]~output_o $end
$var wire 1 J! Dir_Mp[9]~output_o $end
$var wire 1 K! Dir_Mp[10]~output_o $end
$var wire 1 L! Dir_Mp[11]~output_o $end
$var wire 1 M! Dir_Mp[12]~output_o $end
$var wire 1 N! Dir_Mp[13]~output_o $end
$var wire 1 O! Dir_Mp[14]~output_o $end
$var wire 1 P! Dir_Mp[15]~output_o $end
$var wire 1 Q! Ena_Mp~output_o $end
$var wire 1 R! Read_Mp~output_o $end
$var wire 1 S! Dataout_Md[0]~output_o $end
$var wire 1 T! Dataout_Md[1]~output_o $end
$var wire 1 U! Dataout_Md[2]~output_o $end
$var wire 1 V! Dataout_Md[3]~output_o $end
$var wire 1 W! Dataout_Md[4]~output_o $end
$var wire 1 X! Dataout_Md[5]~output_o $end
$var wire 1 Y! Dataout_Md[6]~output_o $end
$var wire 1 Z! Dataout_Md[7]~output_o $end
$var wire 1 [! Dataout_Md[8]~output_o $end
$var wire 1 \! Dataout_Md[9]~output_o $end
$var wire 1 ]! Dataout_Md[10]~output_o $end
$var wire 1 ^! Dataout_Md[11]~output_o $end
$var wire 1 _! Dataout_Md[12]~output_o $end
$var wire 1 `! Dataout_Md[13]~output_o $end
$var wire 1 a! Dataout_Md[14]~output_o $end
$var wire 1 b! Dataout_Md[15]~output_o $end
$var wire 1 c! MDM[0]~output_o $end
$var wire 1 d! MDM[1]~output_o $end
$var wire 1 e! MDM[2]~output_o $end
$var wire 1 f! MDM[3]~output_o $end
$var wire 1 g! MDM[4]~output_o $end
$var wire 1 h! MDM[5]~output_o $end
$var wire 1 i! MDM[6]~output_o $end
$var wire 1 j! MDM[7]~output_o $end
$var wire 1 k! MDM[8]~output_o $end
$var wire 1 l! MDM[9]~output_o $end
$var wire 1 m! MDM[10]~output_o $end
$var wire 1 n! MDM[11]~output_o $end
$var wire 1 o! MDM[12]~output_o $end
$var wire 1 p! MDM[13]~output_o $end
$var wire 1 q! MDM[14]~output_o $end
$var wire 1 r! MDM[15]~output_o $end
$var wire 1 s! Ena_Md~output_o $end
$var wire 1 t! RW_Md~output_o $end
$var wire 1 u! Count[0]~output_o $end
$var wire 1 v! Count[1]~output_o $end
$var wire 1 w! Count[2]~output_o $end
$var wire 1 x! Count[3]~output_o $end
$var wire 1 y! Count[4]~output_o $end
$var wire 1 z! Count[5]~output_o $end
$var wire 1 {! Count[6]~output_o $end
$var wire 1 |! Count[7]~output_o $end
$var wire 1 }! Count[8]~output_o $end
$var wire 1 ~! Count[9]~output_o $end
$var wire 1 !" Count[10]~output_o $end
$var wire 1 "" Count[11]~output_o $end
$var wire 1 #" Count[12]~output_o $end
$var wire 1 $" Count[13]~output_o $end
$var wire 1 %" Count[14]~output_o $end
$var wire 1 &" Count[15]~output_o $end
$var wire 1 '" Estados[0]~output_o $end
$var wire 1 (" Estados[1]~output_o $end
$var wire 1 )" Estados[2]~output_o $end
$var wire 1 *" Estados[3]~output_o $end
$var wire 1 +" Estados[4]~output_o $end
$var wire 1 ," Estados[5]~output_o $end
$var wire 1 -" Clock~input_o $end
$var wire 1 ." ResetSystem~input_o $end
$var wire 1 /" B_Control|FF2~q $end
$var wire 1 0" B_Control|FF0~0_combout $end
$var wire 1 1" B_Control|FF0~q $end
$var wire 1 2" B_Control|FF1~0_combout $end
$var wire 1 3" B_Control|FF1~q $end
$var wire 1 4" B_Control|Ena_Mp~0_combout $end
$var wire 1 5" B_Program_counter|FF0~0_combout $end
$var wire 1 6" B_Program_counter|FF0~q $end
$var wire 1 7" B_Program_counter|D~0_combout $end
$var wire 1 8" B_Program_counter|ENA~0_combout $end
$var wire 1 9" B_Program_counter|FF1~q $end
$var wire 1 :" B_Program_counter|D~1_combout $end
$var wire 1 ;" B_Program_counter|ENA~1_combout $end
$var wire 1 <" B_Program_counter|FF2~q $end
$var wire 1 =" B_Program_counter|D~2_combout $end
$var wire 1 >" B_Program_counter|ENA~2_combout $end
$var wire 1 ?" B_Program_counter|FF3~q $end
$var wire 1 @" B_Program_counter|D~3_combout $end
$var wire 1 A" B_Program_counter|ENA~3_combout $end
$var wire 1 B" B_Program_counter|FF4~q $end
$var wire 1 C" B_Program_counter|D~4_combout $end
$var wire 1 D" B_Program_counter|ENA~4_combout $end
$var wire 1 E" B_Program_counter|FF5~q $end
$var wire 1 F" B_Program_counter|D~5_combout $end
$var wire 1 G" B_Program_counter|ENA~5_combout $end
$var wire 1 H" B_Program_counter|FF6~q $end
$var wire 1 I" B_Program_counter|D~6_combout $end
$var wire 1 J" B_Program_counter|ENA~6_combout $end
$var wire 1 K" B_Program_counter|FF7~q $end
$var wire 1 L" B_Program_counter|D~7_combout $end
$var wire 1 M" B_Program_counter|ENA~7_combout $end
$var wire 1 N" B_Program_counter|FF8~q $end
$var wire 1 O" B_Program_counter|D~8_combout $end
$var wire 1 P" B_Program_counter|ENA~8_combout $end
$var wire 1 Q" B_Program_counter|ENA~9_combout $end
$var wire 1 R" B_Program_counter|FF9~q $end
$var wire 1 S" B_Program_counter|D~9_combout $end
$var wire 1 T" B_Program_counter|ENA~10_combout $end
$var wire 1 U" B_Program_counter|FF10~q $end
$var wire 1 V" B_Program_counter|D~10_combout $end
$var wire 1 W" B_Program_counter|ENA~11_combout $end
$var wire 1 X" B_Program_counter|FF11~q $end
$var wire 1 Y" B_Program_counter|D~11_combout $end
$var wire 1 Z" B_Program_counter|ENA~12_combout $end
$var wire 1 [" B_Program_counter|FF12~q $end
$var wire 1 \" B_Program_counter|D~12_combout $end
$var wire 1 ]" B_Program_counter|ENA~13_combout $end
$var wire 1 ^" B_Program_counter|FF13~q $end
$var wire 1 _" B_Program_counter|D~13_combout $end
$var wire 1 `" B_Program_counter|ENA~14_combout $end
$var wire 1 a" B_Program_counter|FF14~q $end
$var wire 1 b" B_Program_counter|D~14_combout $end
$var wire 1 c" B_Program_counter|ENA~15_combout $end
$var wire 1 d" B_Program_counter|FF15~q $end
$upscope $end
$upscope $end
$enddefinitions $end
#0
$dumpvars
0!
b0 "
b0 #
0$
1%
05
04
03
02
01
00
0/
0.
0-
0,
0+
0*
0)
0(
0'
0&
0E
0D
0C
0B
0A
0@
0?
0>
0=
0<
0;
0:
09
08
07
06
0U
0T
0S
0R
0Q
0P
0O
0N
0M
0L
0K
0J
0I
0H
0G
0F
0V
1W
1]
0\
0[
0Z
0Y
0X
0m
0l
0k
0j
0i
0h
0g
0f
0e
0d
0c
0b
0a
0`
0_
0^
0n
0o
xp
0q
1r
xs
1t
1u
1v
0w
0x
0y
0z
0{
0|
0}
0~
0!!
0"!
0#!
0$!
0%!
0&!
0'!
0(!
0)!
0*!
0+!
0,!
0-!
0.!
0/!
00!
01!
02!
03!
04!
05!
06!
07!
08!
09!
0:!
0;!
0<!
0=!
0>!
0?!
0@!
0A!
0B!
0C!
0D!
0E!
0F!
0G!
0H!
0I!
0J!
0K!
0L!
0M!
0N!
0O!
0P!
1Q!
0R!
0S!
0T!
0U!
0V!
0W!
0X!
0Y!
0Z!
0[!
0\!
0]!
0^!
0_!
0`!
0a!
0b!
0c!
0d!
0e!
0f!
0g!
0h!
0i!
0j!
0k!
0l!
0m!
0n!
0o!
0p!
0q!
0r!
0s!
0t!
0u!
0v!
0w!
0x!
0y!
0z!
0{!
0|!
0}!
0~!
0!"
0""
0#"
0$"
0%"
0&"
1'"
0("
0)"
0*"
0+"
0,"
0-"
1."
0/"
10"
01"
12"
03"
14"
15"
06"
07"
08"
09"
0:"
0;"
0<"
0="
0>"
0?"
0@"
0A"
0B"
0C"
0D"
0E"
0F"
0G"
0H"
0I"
0J"
0K"
0L"
0M"
0N"
0O"
0P"
0Q"
0R"
0S"
0T"
0U"
0V"
0W"
0X"
0Y"
0Z"
0["
0\"
0]"
0^"
0_"
0`"
0a"
0b"
0c"
0d"
$end
#10000
1!
1-"
0p
11"
13"
02"
0'"
1("
0]
1\
#20000
0!
0-"
1p
#30000
1!
1-"
0p
03"
1/"
1b"
1_"
1\"
1Y"
1V"
1S"
1O"
1L"
1I"
1F"
1C"
1@"
1="
1:"
17"
00"
0("
1)"
0\
1[
#40000
0!
0-"
1p
#50000
1!
1-"
0p
01"
16"
0/"
12"
05"
0b"
0_"
0\"
0Y"
0V"
0S"
0O"
0L"
0I"
0F"
0C"
0@"
0="
0:"
07"
10"
1'"
1u!
0)"
1]
15
0[
#60000
0!
0-"
1p
#70000
1!
1-"
0p
11"
13"
02"
0'"
1("
0]
1\
#80000
0!
0-"
1p
#90000
1!
1-"
0p
03"
1/"
1b"
1_"
1\"
1Y"
1V"
1S"
1O"
1L"
1I"
1F"
1C"
1@"
1="
1:"
18"
17"
00"
0("
1)"
0\
1[
#100000
0!
0-"
1p
#110000
1!
1-"
0p
01"
19"
06"
0/"
12"
07"
08"
15"
0b"
0_"
0\"
0Y"
0V"
0S"
0O"
0L"
0I"
0F"
0C"
0@"
0="
0:"
10"
1'"
1v!
0u!
0)"
1]
14
05
0[
#120000
0!
0-"
1p
#130000
1!
1-"
0p
11"
13"
02"
0'"
1("
0]
1\
#140000
0!
0-"
1p
#150000
1!
1-"
0p
03"
1/"
1b"
1_"
1\"
1Y"
1V"
1S"
1O"
1L"
1I"
1F"
1C"
1@"
1="
1:"
00"
0("
1)"
0\
1[
#160000
0!
0-"
1p
#170000
1!
1-"
0p
01"
16"
0/"
12"
05"
0b"
0_"
0\"
0Y"
0V"
0S"
0O"
0L"
0I"
0F"
0C"
0@"
0="
0:"
10"
1'"
1u!
0)"
1]
15
0[
#180000
0!
0-"
1p
#190000
1!
1-"
0p
11"
13"
02"
0'"
1("
0]
1\
#200000
0!
0-"
1p
#210000
1!
1-"
0p
03"
1/"
1b"
1_"
1\"
1Y"
1V"
1S"
1O"
1L"
1I"
1F"
1C"
1@"
1="
1;"
1:"
18"
00"
0("
1)"
0\
1[
#220000
0!
0-"
1p
#230000
1!
1-"
0p
01"
1<"
09"
06"
0/"
12"
0:"
0;"
08"
15"
0b"
0_"
0\"
0Y"
0V"
0S"
0O"
0L"
0I"
0F"
0C"
0@"
0="
10"
1'"
1w!
0v!
0u!
0)"
1]
13
04
05
0[
#240000
0!
0-"
1p
#250000
1!
1-"
0p
11"
13"
02"
0'"
1("
0]
1\
#260000
0!
0-"
1p
#270000
1!
1-"
0p
03"
1/"
1b"
1_"
1\"
1Y"
1V"
1S"
1O"
1L"
1I"
1F"
1C"
1@"
1="
17"
00"
0("
1)"
0\
1[
#280000
0!
0-"
1p
#290000
1!
1-"
0p
01"
16"
0/"
12"
05"
0b"
0_"
0\"
0Y"
0V"
0S"
0O"
0L"
0I"
0F"
0C"
0@"
0="
07"
10"
1'"
1u!
0)"
1]
15
0[
#300000
0!
0-"
1p
#310000
1!
1-"
0p
11"
13"
02"
0'"
1("
0]
1\
#320000
0!
0-"
1p
#330000
1!
1-"
0p
03"
1/"
1b"
1_"
1\"
1Y"
1V"
1S"
1O"
1L"
1I"
1F"
1C"
1@"
1="
18"
17"
00"
0("
1)"
0\
1[
#340000
0!
0-"
1p
#350000
1!
1-"
0p
01"
19"
06"
0/"
12"
07"
08"
15"
0b"
0_"
0\"
0Y"
0V"
0S"
0O"
0L"
0I"
0F"
0C"
0@"
0="
10"
1'"
1v!
0u!
0)"
1]
14
05
0[
#360000
0!
0-"
1p
#370000
1!
1-"
0p
11"
13"
02"
0'"
1("
0]
1\
#380000
0!
0-"
1p
#390000
1!
1-"
0p
03"
1/"
1b"
1_"
1\"
1Y"
1V"
1S"
1O"
1L"
1I"
1F"
1C"
1@"
1="
00"
0("
1)"
0\
1[
#400000
0!
0-"
1p
#410000
1!
1-"
0p
01"
16"
0/"
12"
05"
0b"
0_"
0\"
0Y"
0V"
0S"
0O"
0L"
0I"
0F"
0C"
0@"
0="
10"
1'"
1u!
0)"
1]
15
0[
#420000
0!
0-"
1p
#430000
1!
1-"
0p
11"
13"
02"
0'"
1("
0]
1\
#440000
0!
0-"
1p
#450000
1!
1-"
0p
03"
1/"
1b"
1_"
1\"
1Y"
1V"
1S"
1O"
1L"
1I"
1F"
1C"
1@"
1>"
1="
1;"
18"
00"
0("
1)"
0\
1[
#460000
0!
0-"
1p
#470000
1!
1-"
0p
01"
1?"
0<"
09"
06"
0/"
12"
1A"
0="
0>"
0;"
08"
15"
0b"
0_"
0\"
0Y"
0V"
0S"
0O"
0L"
0I"
0F"
0C"
0@"
10"
1'"
1x!
0w!
0v!
0u!
0)"
1]
12
03
04
05
0[
0A"
#480000
0!
0-"
1p
#490000
1!
1-"
0p
11"
13"
02"
0'"
1("
0]
1\
#500000
0!
0-"
1p
#510000
1!
1-"
0p
03"
1/"
1b"
1_"
1\"
1Y"
1V"
1S"
1O"
1L"
1I"
1F"
1C"
1@"
1:"
17"
00"
0("
1)"
0\
1[
#520000
0!
0-"
1p
#530000
1!
1-"
0p
01"
16"
0/"
12"
05"
0b"
0_"
0\"
0Y"
0V"
0S"
0O"
0L"
0I"
0F"
0C"
0@"
0:"
07"
10"
1'"
1u!
0)"
1]
15
0[
#540000
0!
0-"
1p
#550000
1!
1-"
0p
11"
13"
02"
0'"
1("
0]
1\
#560000
0!
0-"
1p
#570000
1!
1-"
0p
03"
1/"
1b"
1_"
1\"
1Y"
1V"
1S"
1O"
1L"
1I"
1F"
1C"
1@"
1:"
18"
17"
00"
0("
1)"
0\
1[
#580000
0!
0-"
1p
#590000
1!
1-"
0p
01"
19"
06"
0/"
12"
07"
08"
15"
0b"
0_"
0\"
0Y"
0V"
0S"
0O"
0L"
0I"
0F"
0C"
0@"
0:"
10"
1'"
1v!
0u!
0)"
1]
14
05
0[
#600000
0!
0-"
1p
#610000
1!
1-"
0p
11"
13"
02"
0'"
1("
0]
1\
#620000
0!
0-"
1p
#630000
1!
1-"
0p
03"
1/"
1b"
1_"
1\"
1Y"
1V"
1S"
1O"
1L"
1I"
1F"
1C"
1@"
1:"
00"
0("
1)"
0\
1[
#640000
0!
0-"
1p
#650000
1!
1-"
0p
01"
16"
0/"
12"
05"
0b"
0_"
0\"
0Y"
0V"
0S"
0O"
0L"
0I"
0F"
0C"
0@"
0:"
10"
1'"
1u!
0)"
1]
15
0[
#660000
0!
0-"
1p
#670000
1!
1-"
0p
11"
13"
02"
0'"
1("
0]
1\
#680000
0!
0-"
1p
#690000
1!
1-"
0p
03"
1/"
1b"
1_"
1\"
1Y"
1V"
1S"
1O"
1L"
1I"
1F"
1C"
1@"
1;"
1:"
18"
00"
0("
1)"
0\
1[
#700000
0!
0-"
1p
#710000
1!
1-"
0p
01"
1<"
09"
06"
0/"
12"
0:"
0;"
08"
15"
0b"
0_"
0\"
0Y"
0V"
0S"
0O"
0L"
0I"
0F"
0C"
0@"
10"
1'"
1w!
0v!
0u!
0)"
1]
13
04
05
0[
#720000
0!
0-"
1p
#730000
1!
1-"
0p
11"
13"
02"
0'"
1("
0]
1\
#740000
0!
0-"
1p
#750000
1!
1-"
0p
03"
1/"
1b"
1_"
1\"
1Y"
1V"
1S"
1O"
1L"
1I"
1F"
1C"
1@"
17"
00"
0("
1)"
0\
1[
#760000
0!
0-"
1p
#770000
1!
1-"
0p
01"
16"
0/"
12"
05"
0b"
0_"
0\"
0Y"
0V"
0S"
0O"
0L"
0I"
0F"
0C"
0@"
07"
10"
1'"
1u!
0)"
1]
15
0[
#780000
0!
0-"
1p
#790000
1!
1-"
0p
11"
13"
02"
0'"
1("
0]
1\
#800000
0!
0-"
1p
#810000
1!
1-"
0p
03"
1/"
1b"
1_"
1\"
1Y"
1V"
1S"
1O"
1L"
1I"
1F"
1C"
1@"
18"
17"
00"
0("
1)"
0\
1[
#820000
0!
0-"
1p
#830000
1!
1-"
0p
01"
19"
06"
0/"
12"
07"
08"
15"
0b"
0_"
0\"
0Y"
0V"
0S"
0O"
0L"
0I"
0F"
0C"
0@"
10"
1'"
1v!
0u!
0)"
1]
14
05
0[
#840000
0!
0-"
1p
#850000
1!
1-"
0p
11"
13"
02"
0'"
1("
0]
1\
#860000
0!
0-"
1p
#870000
1!
1-"
0p
03"
1/"
1b"
1_"
1\"
1Y"
1V"
1S"
1O"
1L"
1I"
1F"
1C"
1@"
00"
0("
1)"
0\
1[
#880000
0!
0-"
1p
#890000
1!
1-"
0p
01"
16"
0/"
12"
05"
0b"
0_"
0\"
0Y"
0V"
0S"
0O"
0L"
0I"
0F"
0C"
0@"
10"
1'"
1u!
0)"
1]
15
0[
#900000
0!
0-"
1p
#910000
1!
1-"
0p
11"
13"
02"
0'"
1("
0]
1\
#920000
0!
0-"
1p
#930000
1!
1-"
0p
03"
1/"
1b"
1_"
1\"
1Y"
1V"
1S"
1O"
1L"
1I"
1F"
1C"
1@"
1>"
1;"
18"
00"
0("
1)"
0\
1[
1A"
#940000
0!
0-"
1p
#950000
1!
1-"
0p
01"
1B"
0?"
0<"
09"
06"
0/"
12"
0@"
0A"
0>"
0;"
08"
15"
0b"
0_"
0\"
0Y"
0V"
0S"
0O"
0L"
0I"
0F"
0C"
10"
1'"
1y!
0x!
0w!
0v!
0u!
0)"
1]
11
02
03
04
05
0[
#960000
0!
0-"
1p
#970000
1!
1-"
0p
11"
13"
02"
0'"
1("
0]
1\
#980000
0!
0-"
1p
#990000
1!
1-"
0p
03"
1/"
1b"
1_"
1\"
1Y"
1V"
1S"
1O"
1L"
1I"
1F"
1C"
1="
1:"
17"
00"
0("
1)"
0\
1[
