simulation/qsim/ProgramCounter.msim.vcd
$comment
	File created using the following command:
		vcd file ProgramCounter.msim.vcd -direction
$end
$date
	Wed Dec 02 10:15:17 2020
$end
$version
	ModelSim Version 10.1d
$end
$timescale
	1ps
$end
$scope module ProgramCounter_vlg_vec_tst $end
$var reg 1 ! Clock $end
$var reg 1 " Inc_PC $end
$var reg 16 # PC_in [15:0] $end
$var reg 1 $ ResetSystem $end
$var reg 1 % Save_PC $end
$var wire 1 & PC_out [15] $end
$var wire 1 ' PC_out [14] $end
$var wire 1 ( PC_out [13] $end
$var wire 1 ) PC_out [12] $end
$var wire 1 * PC_out [11] $end
$var wire 1 + PC_out [10] $end
$var wire 1 , PC_out [9] $end
$var wire 1 - PC_out [8] $end
$var wire 1 . PC_out [7] $end
$var wire 1 / PC_out [6] $end
$var wire 1 0 PC_out [5] $end
$var wire 1 1 PC_out [4] $end
$var wire 1 2 PC_out [3] $end
$var wire 1 3 PC_out [2] $end
$var wire 1 4 PC_out [1] $end
$var wire 1 5 PC_out [0] $end
$var wire 1 6 sampler $end
$scope module i1 $end
$var wire 1 7 gnd $end
$var wire 1 8 vcc $end
$var wire 1 9 unknown $end
$var tri1 1 : devclrn $end
$var tri1 1 ; devpor $end
$var tri1 1 < devoe $end
$var wire 1 = PC_out[0]~output_o $end
$var wire 1 > PC_out[1]~output_o $end
$var wire 1 ? PC_out[2]~output_o $end
$var wire 1 @ PC_out[3]~output_o $end
$var wire 1 A PC_out[4]~output_o $end
$var wire 1 B PC_out[5]~output_o $end
$var wire 1 C PC_out[6]~output_o $end
$var wire 1 D PC_out[7]~output_o $end
$var wire 1 E PC_out[8]~output_o $end
$var wire 1 F PC_out[9]~output_o $end
$var wire 1 G PC_out[10]~output_o $end
$var wire 1 H PC_out[11]~output_o $end
$var wire 1 I PC_out[12]~output_o $end
$var wire 1 J PC_out[13]~output_o $end
$var wire 1 K PC_out[14]~output_o $end
$var wire 1 L PC_out[15]~output_o $end
$var wire 1 M Clock~input_o $end
$var wire 1 N Save_PC~input_o $end
$var wire 1 O PC_in[0]~input_o $end
$var wire 1 P Inc_PC~input_o $end
$var wire 1 Q ResetSystem~input_o $end
$var wire 1 R FF0~q $end
$var wire 1 S PC_in[1]~input_o $end
$var wire 1 T ENA[1]~0_combout $end
$var wire 1 U FF1~q $end
$var wire 1 V PC_in[2]~input_o $end
$var wire 1 W FF2~q $end
$var wire 1 X PC_in[3]~input_o $end
$var wire 1 Y ENA[3]~1_combout $end
$var wire 1 Z FF3~q $end
$var wire 1 [ PC_in[4]~input_o $end
$var wire 1 \ FF4~q $end
$var wire 1 ] PC_in[5]~input_o $end
$var wire 1 ^ ENA[5]~2_combout $end
$var wire 1 _ FF5~q $end
$var wire 1 ` PC_in[6]~input_o $end
$var wire 1 a FF6~q $end
$var wire 1 b PC_in[7]~input_o $end
$var wire 1 c ENA[7]~3_combout $end
$var wire 1 d ENA[7]~4_combout $end
$var wire 1 e FF7~q $end
$var wire 1 f PC_in[8]~input_o $end
$var wire 1 g FF8~q $end
$var wire 1 h PC_in[9]~input_o $end
$var wire 1 i ENA[9]~5_combout $end
$var wire 1 j FF9~q $end
$var wire 1 k PC_in[10]~input_o $end
$var wire 1 l FF10~q $end
$var wire 1 m PC_in[11]~input_o $end
$var wire 1 n ENA[11]~6_combout $end
$var wire 1 o FF11~q $end
$var wire 1 p PC_in[12]~input_o $end
$var wire 1 q FF12~q $end
$var wire 1 r PC_in[13]~input_o $end
$var wire 1 s ENA[13]~7_combout $end
$var wire 1 t FF13~q $end
$var wire 1 u PC_in[14]~input_o $end
$var wire 1 v FF14~q $end
$var wire 1 w PC_in[15]~input_o $end
$var wire 1 x ENA[15]~8_combout $end
$var wire 1 y FF15~q $end
$var wire 1 z ENA [15] $end
$var wire 1 { ENA [14] $end
$var wire 1 | ENA [13] $end
$var wire 1 } ENA [12] $end
$var wire 1 ~ ENA [11] $end
$var wire 1 !! ENA [10] $end
$var wire 1 "! ENA [9] $end
$var wire 1 #! ENA [8] $end
$var wire 1 $! ENA [7] $end
$var wire 1 %! ENA [6] $end
$var wire 1 &! ENA [5] $end
$var wire 1 '! ENA [4] $end
$var wire 1 (! ENA [3] $end
$var wire 1 )! ENA [2] $end
$var wire 1 *! ENA [1] $end
$var wire 1 +! ENA [0] $end
$var wire 1 ,! D [15] $end
$var wire 1 -! D [14] $end
$var wire 1 .! D [13] $end
$var wire 1 /! D [12] $end
$var wire 1 0! D [11] $end
$var wire 1 1! D [10] $end
$var wire 1 2! D [9] $end
$var wire 1 3! D [8] $end
$var wire 1 4! D [7] $end
$var wire 1 5! D [6] $end
$var wire 1 6! D [5] $end
$var wire 1 7! D [4] $end
$var wire 1 8! D [3] $end
$var wire 1 9! D [2] $end
$var wire 1 :! D [1] $end
$var wire 1 ;! D [0] $end
$upscope $end
$upscope $end
$enddefinitions $end
#0
$dumpvars
0!
0"
b0 #
1$
0%
05
04
03
02
01
00
0/
0.
0-
0,
0+
0*
0)
0(
0'
0&
x6
07
18
x9
1:
1;
1<
0=
0>
0?
0@
0A
0B
0C
0D
0E
0F
0G
0H
0I
0J
0K
0L
0M
0N
0O
0P
1Q
0R
0S
0T
0U
0V
0W
0X
0Y
0Z
0[
0\
0]
0^
0_
0`
0a
0b
0c
0d
0e
0f
0g
0h
0i
0j
0k
0l
0m
0n
0o
0p
0q
0r
0s
0t
0u
0v
0w
0x
0y
0+!
z*!
0)!
z(!
0'!
z&!
0%!
z$!
0#!
z"!
0!!
z~
0}
z|
0{
zz
0;!
0:!
09!
08!
07!
06!
05!
04!
03!
02!
01!
00!
0/!
0.!
0-!
0,!
$end
#10000
1!
1M
06
#20000
0!
0M
16
#30000
1!
1M
06
#40000
0!
0M
16
#50000
1!
1M
06
#60000
0!
0M
16
#70000
1!
1M
06
#80000
1"
0!
1P
0M
16
1,!
1-!
1.!
1/!
10!
11!
12!
13!
14!
15!
16!
17!
18!
19!
1:!
1+!
1;!
#90000
1!
1M
06
1R
1T
0;!
1=
15
#100000
0"
0!
0P
0M
16
0,!
0-!
0.!
0/!
00!
01!
02!
03!
04!
05!
06!
07!
08!
09!
0T
0:!
0+!
#110000
1!
1M
06
#120000
0!
0M
16
#130000
1!
1M
06
#140000
0!
0M
16
#150000
1!
1M
06
#160000
0!
0M
16
#170000
1!
1M
06
#180000
0!
0M
16
#190000
1!
1M
06
#200000
0!
0M
16
#210000
1!
1M
06
#220000
0!
0M
16
#230000
1!
1M
06
#240000
0!
0M
16
#250000
1!
1M
06
#260000
0!
0M
16
#270000
1!
1M
06
#280000
0!
0M
16
#290000
1!
1M
06
#300000
0!
0M
16
#310000
1!
1M
06
#320000
0!
0M
16
#330000
1!
1M
06
#340000
0!
0M
16
#350000
1!
1M
06
#360000
0!
0M
16
#370000
1!
1M
06
#380000
0!
0M
16
#390000
1!
1M
06
#400000
0!
0M
16
#410000
1%
1!
1N
1M
06
1x
1{
1s
1}
1n
1!!
1i
1#!
1d
1%!
1^
1'!
1Y
1)!
1T
1+!
#420000
0!
0M
16
#430000
0%
1!
0N
1M
06
0x
0{
0s
0}
0n
0!!
0i
0#!
0d
0%!
0^
0'!
0Y
0)!
0T
0+!
0R
0=
05
#440000
0!
0M
16
#450000
1!
1M
06
#460000
0!
0M
16
#470000
1!
1M
06
#480000
0!
0M
16
#490000
1!
1M
06
#500000
0!
0M
16
#510000
1!
1M
06
#520000
0!
0M
16
#530000
1!
1M
06
#540000
0!
0M
16
#550000
1!
1M
06
#560000
0!
0M
16
#570000
1!
1M
06
#580000
0!
0M
16
#590000
1!
1M
06
#600000
0!
0M
16
#610000
1!
1M
06
#620000
0!
0M
16
#630000
1!
1M
06
#640000
0!
0M
16
#650000
1!
1M
06
#660000
0!
0M
16
#670000
1!
1M
06
#680000
0!
0M
16
#690000
1!
1M
06
#700000
0!
0M
16
#710000
1!
1M
06
#720000
0!
0M
16
#730000
1!
1M
06
#740000
0!
0M
16
#750000
1!
1M
06
#760000
0!
0M
16
#770000
1!
1M
06
#780000
0!
0M
16
#790000
1!
1M
06
#800000
0!
0M
16
#810000
1!
1M
06
#820000
0!
0M
16
#830000
1!
1M
06
#840000
0!
0M
16
#850000
1!
1M
06
#860000
0!
0M
16
#870000
1!
1M
06
#880000
0!
0M
16
#890000
1!
1M
06
#900000
0!
0M
16
#910000
1!
1M
06
#920000
0!
0M
16
#930000
1!
1M
06
#940000
0!
0M
16
#950000
1!
1M
06
#960000
0!
0M
16
#970000
1!
1M
06
#980000
0!
0M
16
#990000
1!
1M
06
