simulation/qsim/ProgramCounter.msim.vcd
$comment
	File created using the following command:
		vcd file ProgramCounter.msim.vcd -direction
$end
$date
	Tue Dec 01 10:57:52 2020
$end
$version
	ModelSim Version 10.1d
$end
$timescale
	1ps
$end
$scope module ProgramCounter_vlg_vec_tst $end
$var reg 1 ! Clock $end
$var reg 1 " Inc_PC $end
$var reg 16 # PC_in [15:0] $end
$var reg 1 $ ResetSystem $end
$var reg 1 % Save_PC $end
$var wire 1 & PC_out [15] $end
$var wire 1 ' PC_out [14] $end
$var wire 1 ( PC_out [13] $end
$var wire 1 ) PC_out [12] $end
$var wire 1 * PC_out [11] $end
$var wire 1 + PC_out [10] $end
$var wire 1 , PC_out [9] $end
$var wire 1 - PC_out [8] $end
$var wire 1 . PC_out [7] $end
$var wire 1 / PC_out [6] $end
$var wire 1 0 PC_out [5] $end
$var wire 1 1 PC_out [4] $end
$var wire 1 2 PC_out [3] $end
$var wire 1 3 PC_out [2] $end
$var wire 1 4 PC_out [1] $end
$var wire 1 5 PC_out [0] $end
$var wire 1 6 sampler $end
$scope module i1 $end
$var wire 1 7 gnd $end
$var wire 1 8 vcc $end
$var wire 1 9 unknown $end
$var tri1 1 : devclrn $end
$var tri1 1 ; devpor $end
$var tri1 1 < devoe $end
$var wire 1 = PC_out[0]~output_o $end
$var wire 1 > PC_out[1]~output_o $end
$var wire 1 ? PC_out[2]~output_o $end
$var wire 1 @ PC_out[3]~output_o $end
$var wire 1 A PC_out[4]~output_o $end
$var wire 1 B PC_out[5]~output_o $end
$var wire 1 C PC_out[6]~output_o $end
$var wire 1 D PC_out[7]~output_o $end
$var wire 1 E PC_out[8]~output_o $end
$var wire 1 F PC_out[9]~output_o $end
$var wire 1 G PC_out[10]~output_o $end
$var wire 1 H PC_out[11]~output_o $end
$var wire 1 I PC_out[12]~output_o $end
$var wire 1 J PC_out[13]~output_o $end
$var wire 1 K PC_out[14]~output_o $end
$var wire 1 L PC_out[15]~output_o $end
$var wire 1 M Clock~input_o $end
$var wire 1 N Clock~inputclkctrl_outclk $end
$var wire 1 O PC_in[0]~input_o $end
$var wire 1 P Save_PC~input_o $end
$var wire 1 Q ResetSystem~input_o $end
$var wire 1 R ResetSystem~inputclkctrl_outclk $end
$var wire 1 S Inc_PC~input_o $end
$var wire 1 T FF0~q $end
$var wire 1 U PC_in[1]~input_o $end
$var wire 1 V FF1~q $end
$var wire 1 W PC_in[2]~input_o $end
$var wire 1 X FF2~q $end
$var wire 1 Y PC_in[3]~input_o $end
$var wire 1 Z ENA[3]~0_combout $end
$var wire 1 [ FF3~q $end
$var wire 1 \ PC_in[4]~input_o $end
$var wire 1 ] FF4~q $end
$var wire 1 ^ PC_in[5]~input_o $end
$var wire 1 _ ENA[5]~1_combout $end
$var wire 1 ` FF5~q $end
$var wire 1 a PC_in[6]~input_o $end
$var wire 1 b FF6~q $end
$var wire 1 c PC_in[7]~input_o $end
$var wire 1 d ENA[7]~2_combout $end
$var wire 1 e ENA[7]~3_combout $end
$var wire 1 f FF7~q $end
$var wire 1 g PC_in[8]~input_o $end
$var wire 1 h FF8~q $end
$var wire 1 i PC_in[9]~input_o $end
$var wire 1 j ENA[9]~4_combout $end
$var wire 1 k FF9~q $end
$var wire 1 l PC_in[10]~input_o $end
$var wire 1 m FF10~q $end
$var wire 1 n PC_in[11]~input_o $end
$var wire 1 o ENA[11]~5_combout $end
$var wire 1 p FF11~q $end
$var wire 1 q PC_in[12]~input_o $end
$var wire 1 r FF12~q $end
$var wire 1 s PC_in[13]~input_o $end
$var wire 1 t ENA[13]~6_combout $end
$var wire 1 u FF13~q $end
$var wire 1 v PC_in[14]~input_o $end
$var wire 1 w FF14~q $end
$var wire 1 x PC_in[15]~input_o $end
$var wire 1 y ENA[15]~7_combout $end
$var wire 1 z FF15~q $end
$var wire 1 { D [15] $end
$var wire 1 | D [14] $end
$var wire 1 } D [13] $end
$var wire 1 ~ D [12] $end
$var wire 1 !! D [11] $end
$var wire 1 "! D [10] $end
$var wire 1 #! D [9] $end
$var wire 1 $! D [8] $end
$var wire 1 %! D [7] $end
$var wire 1 &! D [6] $end
$var wire 1 '! D [5] $end
$var wire 1 (! D [4] $end
$var wire 1 )! D [3] $end
$var wire 1 *! D [2] $end
$var wire 1 +! D [1] $end
$var wire 1 ,! D [0] $end
$var wire 1 -! ENA [15] $end
$var wire 1 .! ENA [14] $end
$var wire 1 /! ENA [13] $end
$var wire 1 0! ENA [12] $end
$var wire 1 1! ENA [11] $end
$var wire 1 2! ENA [10] $end
$var wire 1 3! ENA [9] $end
$var wire 1 4! ENA [8] $end
$var wire 1 5! ENA [7] $end
$var wire 1 6! ENA [6] $end
$var wire 1 7! ENA [5] $end
$var wire 1 8! ENA [4] $end
$var wire 1 9! ENA [3] $end
$var wire 1 :! ENA [2] $end
$var wire 1 ;! ENA [1] $end
$var wire 1 <! ENA [0] $end
$upscope $end
$upscope $end
$enddefinitions $end
#0
$dumpvars
0!
0"
b0 #
1$
0%
x5
x4
x3
x2
x1
x0
x/
x.
x-
x,
x+
x*
x)
x(
x'
x&
x6
07
18
x9
1:
1;
1<
x=
x>
x?
x@
xA
xB
xC
xD
xE
xF
xG
xH
xI
xJ
xK
xL
0M
xN
0O
0P
1Q
xR
0S
0T
0U
0V
0W
0X
0Y
xZ
0[
0\
0]
0^
x_
0`
0a
0b
0c
xd
xe
0f
0g
0h
0i
xj
0k
0l
0m
0n
xo
0p
0q
0r
0s
xt
0u
0v
0w
0x
xy
0z
1,!
x+!
x*!
x)!
x(!
x'!
x&!
x%!
x$!
x#!
x"!
x!!
x~
x}
x|
x{
z<!
x;!
x:!
z9!
x8!
z7!
x6!
z5!
x4!
z3!
x2!
z1!
x0!
z/!
x.!
z-!
$end
#378
0N
#390
1R
#663
0d
#1261
0:!
#1476
04!
#1524
0Z
#1526
0t
#1536
00!
#1537
0o
#1538
08!
#1540
0;!
#1543
0_
#1546
0y
#1548
0j
#1549
0e
#1716
02!
#1736
0.!
#1919
06!
#3335
0K
0'
#3441
0B
00
#3534
0@
02
#3545
0I
0)
#3624
0=
05
#3835
0H
0*
#3916
0A
01
#4043
0|
#4052
0L
0&
#4075
0&!
#4076
0'!
#4095
0?
03
#4236
0E
0-
#4245
0>
04
#4334
0}
#4470
0G
0+
#4552
0C
0/
#4594
0%!
#4597
0$!
#4618
0!!
#4623
0"!
#4645
0#!
#4648
0(!
#4650
0~
#4660
0+!
#4661
0{
#4689
0D
0.
#4755
0F
0,
#4814
0*!
#4815
0)!
#5389
0J
0(
#10000
1!
06
#10527
1M
#10917
1N
#20000
0!
16
#20701
0M
#21079
0N
#30000
1!
06
#30527
1M
#30917
1N
#40000
0!
16
#40701
0M
#41079
0N
#50000
1!
06
#50527
1M
#50917
1N
#60000
0!
16
#60701
0M
#61079
0N
#70000
1!
06
#70527
1M
#70917
1N
#80000
0!
16
#80701
0M
#81079
0N
#90000
1!
06
#90527
1M
#90917
1N
#100000
0!
16
#100701
0M
#101079
0N
#110000
1!
06
#110527
1M
#110917
1N
#120000
0!
16
#120701
0M
#121079
0N
#130000
1!
06
#130527
1M
#130917
1N
#140000
0!
16
#140701
0M
#141079
0N
#150000
1!
06
#150527
1M
#150917
1N
#160000
0!
16
#160701
0M
#161079
0N
#170000
1!
06
#170527
1M
#170917
1N
#180000
0!
16
#180701
0M
#181079
0N
#190000
1!
06
#190527
1M
#190917
1N
#200000
0!
16
#200701
0M
#201079
0N
#210000
1!
06
#210527
1M
#210917
1N
#220000
1"
0!
16
#220507
1S
#220701
0M
#221079
0N
#224248
1|
#224275
1&!
#224276
1'!
#224507
1}
#224774
1%!
#224777
1$!
#224786
1!!
#224802
1(!
1"!
#224803
1~
#224804
1#!
#224824
1+!
1{
#224997
1*!
#224998
1)!
#230000
1!
06
#230527
1M
#230917
1N
#232553
1T
#232922
0,!
#233300
1;!
#236248
1=
15
#240000
0"
0!
16
#240681
0S
#240701
0M
#241079
0N
#244724
0|
#244756
0&!
#244757
0'!
#245015
0}
#245169
0;!
#245275
0%!
#245278
0$!
#245299
0!!
#245304
0"!
#245326
0#!
#245329
0(!
#245331
0~
#245341
0+!
#245342
0{
#245495
0*!
#245496
0)!
#250000
1!
06
#250527
1M
#250917
1N
#260000
0!
16
#260701
0M
#261079
0N
#270000
1!
06
#270527
1M
#270917
1N
#280000
0!
16
#280701
0M
#281079
0N
#290000
1!
06
#290527
1M
#290917
1N
#300000
0!
16
#300701
0M
#301079
0N
#310000
1!
06
#310527
1M
#310917
1N
#320000
0!
16
#320701
0M
#321079
0N
#330000
1!
06
#330527
1M
#330917
1N
#340000
0!
16
#340701
0M
#341079
0N
#350000
1!
06
#350527
1M
#350917
1N
#360000
0!
16
#360701
0M
#361079
0N
#370000
1!
06
#370527
1M
#370917
1N
#380000
0!
16
#380701
0M
#381079
0N
#390000
1!
06
#390527
1M
#390917
1N
#400000
0!
16
#400701
0M
#401079
0N
#410000
1!
06
#410527
1M
#410917
1N
#420000
0!
16
#420701
0M
#421079
0N
#430000
1!
06
#430527
1M
#430917
1N
#440000
1"
0!
16
#440507
1S
#440701
0M
#441079
0N
#444248
1|
#444275
1&!
#444276
1'!
#444507
1}
#444653
1;!
#444774
1%!
#444777
1$!
#444786
1!!
#444802
1(!
1"!
#444803
1~
#444804
1#!
#444824
1+!
1{
#444997
1*!
#444998
1)!
#450000
1!
06
#450527
1M
#450917
1N
#452545
1V
#452553
0T
#452906
1,!
#452914
0+!
#453352
0;!
#456177
0=
05
#456836
1>
14
#460000
0"
0!
16
#460681
0S
#460701
0M
#461079
0N
#464724
0|
#464756
0&!
#464757
0'!
#465015
0}
#465275
0%!
#465278
0$!
#465299
0!!
#465304
0"!
#465326
0#!
#465329
0(!
#465331
0~
#465342
0{
#465495
0*!
#465496
0)!
#470000
1!
06
#470527
1M
#470917
1N
#480000
0!
16
#480701
0M
#481079
0N
#490000
1!
06
#490527
1M
#490917
1N
#500000
0!
16
#500701
0M
#501079
0N
#510000
1!
06
#510527
1M
#510917
1N
#520000
0!
16
#520701
0M
#521079
0N
#530000
1!
06
#530527
1M
#530917
1N
#540000
0!
16
#540701
0M
#541079
0N
#550000
1!
06
#550527
1M
#550917
1N
#560000
0!
16
#560701
0M
#561079
0N
#570000
1!
06
#570527
1M
#570917
1N
#580000
0!
16
#580701
0M
#581079
0N
#590000
1!
06
#590527
1M
#590917
1N
#600000
0!
16
#600701
0M
#601079
0N
#610000
1!
06
#610527
1M
#610917
1N
#620000
0!
16
#620701
0M
#621079
0N
#630000
1!
06
#630527
1M
#630917
1N
#640000
0!
16
#640701
0M
#641079
0N
#650000
1!
06
#650527
1M
#650917
1N
#660000
0!
16
#660701
0M
#661079
0N
#670000
1!
06
#670527
1M
#670917
1N
#680000
0!
16
#680701
0M
#681079
0N
#690000
1!
06
#690527
1M
#690917
1N
#700000
0!
16
#700701
0M
#701079
0N
#710000
1!
06
#710527
1M
#710917
1N
#720000
0!
16
#720701
0M
#721079
0N
#730000
1!
06
#730527
1M
#730917
1N
#740000
0!
16
#740701
0M
#741079
0N
#750000
1!
06
#750527
1M
#750917
1N
#760000
0!
16
#760701
0M
#761079
0N
#770000
1!
06
#770527
1M
#770917
1N
#780000
0!
16
#780701
0M
#781079
0N
#790000
1!
06
#790527
1M
#790917
1N
#800000
0!
16
#800701
0M
#801079
0N
#810000
1!
06
#810527
1M
#810917
1N
#820000
0!
16
#820701
0M
#821079
0N
#830000
1!
06
#830527
1M
#830917
1N
#840000
0!
16
#840701
0M
#841079
0N
#850000
1!
06
#850527
1M
#850917
1N
#860000
0!
16
#860701
0M
#861079
0N
#870000
1!
06
#870527
1M
#870917
1N
#880000
0!
16
#880701
0M
#881079
0N
#890000
1!
06
#890527
1M
#890917
1N
#900000
0!
16
#900701
0M
#901079
0N
#910000
1!
06
#910527
1M
#910917
1N
#920000
0!
16
#920701
0M
#921079
0N
#930000
1!
06
#930527
1M
#930917
1N
#940000
0!
16
#940701
0M
#941079
0N
#950000
1!
06
#950527
1M
#950917
1N
#960000
0!
16
#960701
0M
#961079
0N
#970000
1!
06
#970527
1M
#970917
1N
#980000
0!
16
#980701
0M
#981079
0N
#990000
1!
06
#990527
1M
