simulation/qsim/StackPointer.msim.vcd
$comment
	File created using the following command:
		vcd file StackPointer.msim.vcd -direction
$end
$date
	Tue Dec 01 07:33:49 2020
$end
$version
	ModelSim Version 10.1d
$end
$timescale
	1ps
$end
$scope module StackPointer_vlg_vec_tst $end
$var reg 1 ! Clock $end
$var reg 1 " Enable $end
$var reg 1 # IncDec $end
$var reg 1 $ ResetSystem $end
$var wire 1 % Valor_out [15] $end
$var wire 1 & Valor_out [14] $end
$var wire 1 ' Valor_out [13] $end
$var wire 1 ( Valor_out [12] $end
$var wire 1 ) Valor_out [11] $end
$var wire 1 * Valor_out [10] $end
$var wire 1 + Valor_out [9] $end
$var wire 1 , Valor_out [8] $end
$var wire 1 - Valor_out [7] $end
$var wire 1 . Valor_out [6] $end
$var wire 1 / Valor_out [5] $end
$var wire 1 0 Valor_out [4] $end
$var wire 1 1 Valor_out [3] $end
$var wire 1 2 Valor_out [2] $end
$var wire 1 3 Valor_out [1] $end
$var wire 1 4 Valor_out [0] $end
$var wire 1 5 sampler $end
$scope module i1 $end
$var wire 1 6 gnd $end
$var wire 1 7 vcc $end
$var wire 1 8 unknown $end
$var tri1 1 9 devclrn $end
$var tri1 1 : devpor $end
$var tri1 1 ; devoe $end
$var wire 1 < Valor_out[0]~output_o $end
$var wire 1 = Valor_out[1]~output_o $end
$var wire 1 > Valor_out[2]~output_o $end
$var wire 1 ? Valor_out[3]~output_o $end
$var wire 1 @ Valor_out[4]~output_o $end
$var wire 1 A Valor_out[5]~output_o $end
$var wire 1 B Valor_out[6]~output_o $end
$var wire 1 C Valor_out[7]~output_o $end
$var wire 1 D Valor_out[8]~output_o $end
$var wire 1 E Valor_out[9]~output_o $end
$var wire 1 F Valor_out[10]~output_o $end
$var wire 1 G Valor_out[11]~output_o $end
$var wire 1 H Valor_out[12]~output_o $end
$var wire 1 I Valor_out[13]~output_o $end
$var wire 1 J Valor_out[14]~output_o $end
$var wire 1 K Valor_out[15]~output_o $end
$var wire 1 L Clock~input_o $end
$var wire 1 M Clock~inputclkctrl_outclk $end
$var wire 1 N FF0~0_combout $end
$var wire 1 O ResetSystem~input_o $end
$var wire 1 P ResetSystem~inputclkctrl_outclk $end
$var wire 1 Q Enable~input_o $end
$var wire 1 R FF0~q $end
$var wire 1 S FF1~0_combout $end
$var wire 1 T IncDec~input_o $end
$var wire 1 U FF1~q $end
$var wire 1 V FF2~0_combout $end
$var wire 1 W FF2~q $end
$var wire 1 X FF3~0_combout $end
$var wire 1 Y FF3~q $end
$var wire 1 Z FF4~0_combout $end
$var wire 1 [ FF4~q $end
$var wire 1 \ FF5~0_combout $end
$var wire 1 ] FF5~q $end
$var wire 1 ^ FF6~0_combout $end
$var wire 1 _ ENA[6]~20_combout $end
$var wire 1 ` FF6~q $end
$var wire 1 a FF7~0_combout $end
$var wire 1 b FF7~q $end
$var wire 1 c FF8~0_combout $end
$var wire 1 d FF8~q $end
$var wire 1 e FF9~0_combout $end
$var wire 1 f FF9~q $end
$var wire 1 g FF10~0_combout $end
$var wire 1 h FF10~q $end
$var wire 1 i FF11~0_combout $end
$var wire 1 j ENA[11]~23_combout $end
$var wire 1 k ENA[11]~24_combout $end
$var wire 1 l FF11~q $end
$var wire 1 m FF12~0_combout $end
$var wire 1 n FF12~q $end
$var wire 1 o FF13~0_combout $end
$var wire 1 p FF13~q $end
$var wire 1 q FF14~0_combout $end
$var wire 1 r ENA[14]~21_combout $end
$var wire 1 s ENA[14]~22_combout $end
$var wire 1 t FF14~q $end
$var wire 1 u ENA [15] $end
$var wire 1 v ENA [14] $end
$var wire 1 w ENA [13] $end
$var wire 1 x ENA [12] $end
$var wire 1 y ENA [11] $end
$var wire 1 z ENA [10] $end
$var wire 1 { ENA [9] $end
$var wire 1 | ENA [8] $end
$var wire 1 } ENA [7] $end
$var wire 1 ~ ENA [6] $end
$var wire 1 !! ENA [5] $end
$var wire 1 "! ENA [4] $end
$var wire 1 #! ENA [3] $end
$var wire 1 $! ENA [2] $end
$var wire 1 %! ENA [1] $end
$var wire 1 &! ENA [0] $end
$upscope $end
$upscope $end
$enddefinitions $end
#0
$dumpvars
0!
0"
0#
1$
04
03
02
01
00
0/
0.
0-
0,
0+
0*
0)
0(
0'
0&
0%
x5
06
17
x8
19
1:
1;
0<
0=
0>
0?
0@
0A
0B
0C
0D
0E
0F
0G
0H
0I
0J
0K
0L
0M
1N
1O
1P
0Q
0R
1S
0T
0U
1V
0W
1X
0Y
1Z
0[
1\
0]
1^
1_
0`
1a
0b
1c
0d
1e
0f
1g
0h
1i
0j
0k
0l
1m
0n
1o
0p
1q
0r
0s
0t
z&!
0%!
0$!
0#!
0"!
0!!
0~
0}
0|
0{
0z
zy
0x
0w
zv
zu
$end
#10000
1!
1"
1#
1L
1Q
1T
1M
05
0_
1R
1%!
0N
1<
14
#20000
0!
0L
0M
15
#30000
1!
1L
1M
05
1U
0R
0S
0%!
1N
1=
0<
13
04
#40000
0!
0L
0M
15
#50000
1!
1L
1M
05
1R
1$!
1%!
0N
1<
14
#60000
0!
0L
0M
15
#70000
1!
1L
1M
05
1W
0U
0R
1#!
0V
0$!
1S
0%!
1N
1>
0=
0<
12
03
04
0#!
#80000
0!
0L
0M
15
#90000
1!
1L
1M
05
1R
1%!
0N
1<
14
#100000
0!
0L
0M
15
#110000
1!
1L
1M
05
1U
0R
0S
0%!
1N
1=
0<
13
04
#120000
0!
0L
0M
15
#130000
1!
1L
1M
05
1R
1$!
1%!
0N
1<
14
1#!
#140000
0"
0#
0!
0Q
0T
0L
0M
15
0$!
0%!
0#!
#150000
1!
1L
1M
05
#160000
0!
0L
0M
15
#170000
1!
1L
1M
05
#180000
0!
0L
0M
15
#190000
1!
1L
1M
05
#200000
0!
0L
0M
15
#210000
1!
1L
1M
05
#220000
0!
0L
0M
15
#230000
1"
1!
1Q
1L
1M
05
0R
1%!
1N
0<
04
#240000
0!
0L
0M
15
#250000
1!
1L
1M
05
0U
1R
1S
0%!
0N
0=
1<
03
14
#260000
0!
0L
0M
15
#270000
1!
1L
1M
05
0R
1$!
1%!
1N
0<
04
#280000
0!
0L
0M
15
#290000
0"
1!
0Q
1L
1M
05
0$!
0%!
0W
1U
1_
1V
0S
0>
1=
02
13
#300000
0!
0L
0M
15
#310000
1!
1L
1M
05
#320000
0!
0L
0M
15
#330000
1!
1L
1M
05
#340000
0!
0L
0M
15
#350000
1!
1L
1M
05
#360000
0!
0L
0M
15
#370000
1!
1L
1M
05
#380000
0!
0L
0M
15
#390000
1!
1L
1M
05
#400000
0!
0L
0M
15
#410000
1!
1L
1M
05
#420000
0!
0L
0M
15
#430000
1!
1L
1M
05
#440000
0!
0L
0M
15
#450000
1!
1L
1M
05
#460000
0!
0L
0M
15
#470000
1!
1L
1M
05
#480000
0!
0L
0M
15
#490000
1!
1L
1M
05
#500000
0!
0L
0M
15
#510000
1!
1L
1M
05
#520000
0!
0L
0M
15
#530000
1!
1L
1M
05
#540000
0!
0L
0M
15
#550000
1!
1L
1M
05
#560000
0!
0L
0M
15
#570000
1!
1L
1M
05
#580000
0!
0L
0M
15
#590000
1!
1L
1M
05
#600000
0!
0L
0M
15
#610000
1!
1L
1M
05
#620000
0!
0L
0M
15
#630000
1!
1L
1M
05
#640000
0!
0L
0M
15
#650000
1!
1L
1M
05
#660000
0!
0L
0M
15
#670000
1!
1L
1M
05
#680000
0!
0L
0M
15
#690000
1!
1L
1M
05
#700000
0!
0L
0M
15
#710000
1!
1L
1M
05
#720000
0!
0L
0M
15
#730000
1!
1L
1M
05
#740000
0!
0L
0M
15
#750000
1!
1L
1M
05
#760000
0!
0L
0M
15
#770000
1!
1L
1M
05
#780000
0!
0L
0M
15
#790000
1!
1L
1M
05
#800000
0!
0L
0M
15
#810000
1!
1L
1M
05
#820000
0!
0L
0M
15
#830000
1!
1L
1M
05
#840000
0!
0L
0M
15
#850000
1!
1L
1M
05
#860000
0!
0L
0M
15
#870000
1!
1L
1M
05
#880000
0!
0L
0M
15
#890000
1!
1L
1M
05
#900000
0!
0L
0M
15
#910000
1!
1L
1M
05
#920000
0!
0L
0M
15
#930000
1!
1L
1M
05
#940000
0!
0L
0M
15
#950000
1!
1L
1M
05
#960000
0!
0L
0M
15
#970000
1!
1L
1M
05
#980000
0!
0L
0M
15
#990000
1!
1L
1M
05
